proj_3/sim/transcript
# //  Questa Sim-64
# //  Version 2025.1_1 linux_x86_64 Feb 13 2025
# //
# // Unpublished work. Copyright 2025 Siemens
# //
# // This material contains trade secrets or otherwise confidential information
# // owned by Siemens Industry Software Inc. or its affiliates (collectively,
# // "SISW"), or its licensors. Access to and use of this information is strictly
# // limited as set forth in the Customer's applicable agreements with SISW.
# //
# // This material may not be copied, distributed, or otherwise disclosed outside
# // of the Customer's facilities without the express written permission of SISW,
# // and may not be used in any way not expressly authorized by SISW.
# //
# vsim -i -classdebug -msgmode both -coverage -voptargs="+cover=bcestf" -do "set NoQuitOnFinish 1; do wave.do; run -all; coverage save test_top.ucdb" optimized_debug_top_tb 
# Start time: 16:31:50 on Apr 19,2025
# Loading sv_std.std
# Loading work.i2c_if(fast)
# Loading work.type_pkg(fast)
# Loading work.wb_if(fast)
# Loading work.ncsu_pkg(fast)
# Loading work.i2c_pkg(fast)
# Loading work.wb_pkg(fast)
# Loading work.i2cmb_env_pkg(fast)
# Loading work.top(fast)
# Loading work.i2c_if_sv_unit(fast)
# Loading work.i2c_if(fast__2)
# Loading work.wb_if(fast__2)
# Loading std.standard
# Loading std.textio(body)
# Loading ieee.std_logic_1164(body)
# Loading work.iicmb_m_wb(str)#1
# Loading work.wishbone(rtl)#1
# Loading ieee.numeric_std(body)
# Loading work.iicmb_pkg(body)
# Loading work.regblock(rtl)#1
# Loading work.iicmb_int_pkg(body)
# Loading work.iicmb_m(str)#1
# Loading work.mbyte(rtl)#1
# Loading work.mbit(rtl)#1
# Loading work.conditioner_mux(str)#1
# Loading work.conditioner(str)#1
# Loading work.filter(rtl)#1
# Loading work.bus_state(rtl)#1
# ** Warning: (vsim-8634) Code was not compiled with coverage options.
# set NoQuitOnFinish 1
# 1
#  do wave.do
#  run -all
# ----------------------------------------------------------------
# //  NCSU Package 
# //  Version 1.0a
# ----------------------------------------------------------------
# 
# 
# NCSU_INFO:Time                    0:ncsu_component::build():  of tst.env.wb_agent.driver called
# NCSU_INFO:Time                    0:ncsu_component::build():  of tst.env.wb_agent.coverage called
# NCSU_INFO:Time                    0:ncsu_component::build():  of tst.env.wb_agent.monitor called
# NCSU_INFO:Time                    0:ncsu_component::build():  of tst.env.i2c_agent.driver called
# NCSU_INFO:Time                    0:ncsu_component::build():  of tst.env.i2c_agent.coverage called
# NCSU_INFO:Time                    0:ncsu_component::build():  of tst.env.i2c_agent.monitor called
# NCSU_INFO:Time                    0:ncsu_component::build():  of tst.env.pred called
# NCSU_INFO:Time                    0:ncsu_component::build():  of tst.env.scbd called
# [Generator] Starting i2c_flow
# [Generator] DUT setup complete
# [Generator] Starting write of 32 incrementing values (0-31)
# [Generator] Writing data 0: addr=1, data=0
# [Generator] Writing data 1: addr=1, data=1
# [Generator] Writing data 2: addr=1, data=2
# [Generator] Writing data 3: addr=1, data=3
# [Generator] Writing data 4: addr=1, data=4
# [Generator] Writing data 5: addr=1, data=5
# [Generator] Writing data 6: addr=1, data=6
# [Generator] Writing data 7: addr=1, data=7
# [Generator] Writing data 8: addr=1, data=8
# [Generator] Writing data 9: addr=1, data=9
# [Generator] Writing data 10: addr=1, data=a
# [Generator] Writing data 11: addr=1, data=b
# [Generator] Writing data 12: addr=1, data=c
# [Generator] Writing data 13: addr=1, data=d
# [Generator] Writing data 14: addr=1, data=e
# [Generator] Writing data 15: addr=1, data=f
# [Generator] Writing data 16: addr=1, data=10
# [Generator] Writing data 17: addr=1, data=11
# [Generator] Writing data 18: addr=1, data=12
# [Generator] Writing data 19: addr=1, data=13
# [Generator] Writing data 20: addr=1, data=14
# [Generator] Writing data 21: addr=1, data=15
# [Generator] Writing data 22: addr=1, data=16
# [Generator] Writing data 23: addr=1, data=17
# [Generator] Writing data 24: addr=1, data=18
# [Generator] Writing data 25: addr=1, data=19
# [Generator] Writing data 26: addr=1, data=1a
# [Generator] Writing data 27: addr=1, data=1b
# [Generator] Writing data 28: addr=1, data=1c
# [Generator] Writing data 29: addr=1, data=1d
# [Generator] Writing data 30: addr=1, data=1e
# [Generator] Writing data 31: addr=1, data=1f
# tst.env.scbd nb_transport: expected transaction name:  transaction_count: 75 i2c_address:0x22 op:0x0 i2c_data_compare:'{0, 1, 2, 3, 4, 5, 6, 7, 8, 9, 10, 11, 12, 13, 14, 15, 16, 17, 18, 19, 20, 21, 22, 23, 24, 25, 26, 27, 28, 29, 30, 31}
# tst.env.scbd       nb_put:   actual transaction name: i2c_monitor_trans transaction_count: 66 i2c_address:0x22 op:0x0 i2c_data_compare:'{0, 1, 2, 3, 4, 5, 6, 7, 8, 9, 10, 11, 12, 13, 14, 15, 16, 17, 18, 19, 20, 21, 22, 23, 24, 25, 26, 27, 28, 29, 30, 31}
# tst.env.scbd i2c_write_transaction MATCH!
# [Generator] Finished writing 32 incrementing values
# [Generator] Starting read of 32 values (100-131)
# [Generator] Reading DPR: addr=1
# [Generator] Reading DPR: addr=1
# [Generator] Reading DPR: addr=1
# [Generator] Reading DPR: addr=1
# [Generator] Reading DPR: addr=1
# [Generator] Reading DPR: addr=1
# [Generator] Reading DPR: addr=1
# [Generator] Reading DPR: addr=1
# [Generator] Reading DPR: addr=1
# [Generator] Reading DPR: addr=1
# [Generator] Reading DPR: addr=1
# [Generator] Reading DPR: addr=1
# [Generator] Reading DPR: addr=1
# [Generator] Reading DPR: addr=1
# [Generator] Reading DPR: addr=1
# [Generator] Reading DPR: addr=1
# [Generator] Reading DPR: addr=1
# [Generator] Reading DPR: addr=1
# [Generator] Reading DPR: addr=1
# [Generator] Reading DPR: addr=1
# [Generator] Reading DPR: addr=1
# [Generator] Reading DPR: addr=1
# [Generator] Reading DPR: addr=1
# [Generator] Reading DPR: addr=1
# [Generator] Reading DPR: addr=1
# [Generator] Reading DPR: addr=1
# [Generator] Reading DPR: addr=1
# [Generator] Reading DPR: addr=1
# [Generator] Reading DPR: addr=1
# [Generator] Reading DPR: addr=1
# [Generator] Reading DPR: addr=1
# [Generator] Reading DPR: addr=1
# tst.env.scbd nb_transport: expected transaction name:  transaction_count: 180 i2c_address:0x22 op:0x1 i2c_data_compare:'{100, 101, 102, 103, 104, 105, 106, 107, 108, 109, 110, 111, 112, 113, 114, 115, 116, 117, 118, 119, 120, 121, 122, 123, 124, 125, 126, 127, 128, 129, 130, 131}
# tst.env.scbd       nb_put:   actual transaction name: i2c_monitor_trans transaction_count: 175 i2c_address:0x22 op:0x1 i2c_data_compare:'{100, 101, 102, 103, 104, 105, 106, 107, 108, 109, 110, 111, 112, 113, 114, 115, 116, 117, 118, 119, 120, 121, 122, 123, 124, 125, 126, 127, 128, 129, 130, 131}
# tst.env.scbd i2c_write_transaction MATCH!
# [Generator] Finished reading 32 values
# [Generator] Starting 64 alternating writes and reads
# tst.env.scbd nb_transport: expected transaction name:  transaction_count: 285 i2c_address:0x22 op:0x0 i2c_data_compare:'{64}
# tst.env.scbd       nb_put:   actual transaction name: i2c_monitor_trans transaction_count: 280 i2c_address:0x22 op:0x0 i2c_data_compare:'{64}
# tst.env.scbd i2c_write_transaction MATCH!
# [Generator] Reading DPR: addr=1
# tst.env.scbd nb_transport: expected transaction name:  transaction_count: 297 i2c_address:0x22 op:0x1 i2c_data_compare:'{63}
# tst.env.scbd       nb_put:   actual transaction name: i2c_monitor_trans transaction_count: 292 i2c_address:0x22 op:0x1 i2c_data_compare:'{63}
# tst.env.scbd i2c_write_transaction MATCH!
# tst.env.scbd nb_transport: expected transaction name:  transaction_count: 309 i2c_address:0x22 op:0x0 i2c_data_compare:'{65}
# tst.env.scbd       nb_put:   actual transaction name: i2c_monitor_trans transaction_count: 304 i2c_address:0x22 op:0x0 i2c_data_compare:'{65}
# tst.env.scbd i2c_write_transaction MATCH!
# [Generator] Reading DPR: addr=1
# tst.env.scbd nb_transport: expected transaction name:  transaction_count: 321 i2c_address:0x22 op:0x1 i2c_data_compare:'{62}
# tst.env.scbd       nb_put:   actual transaction name: i2c_monitor_trans transaction_count: 316 i2c_address:0x22 op:0x1 i2c_data_compare:'{62}
# tst.env.scbd i2c_write_transaction MATCH!
# tst.env.scbd nb_transport: expected transaction name:  transaction_count: 333 i2c_address:0x22 op:0x0 i2c_data_compare:'{66}
# tst.env.scbd       nb_put:   actual transaction name: i2c_monitor_trans transaction_count: 328 i2c_address:0x22 op:0x0 i2c_data_compare:'{66}
# tst.env.scbd i2c_write_transaction MATCH!
# [Generator] Reading DPR: addr=1
# tst.env.scbd nb_transport: expected transaction name:  transaction_count: 345 i2c_address:0x22 op:0x1 i2c_data_compare:'{61}
# tst.env.scbd       nb_put:   actual transaction name: i2c_monitor_trans transaction_count: 340 i2c_address:0x22 op:0x1 i2c_data_compare:'{61}
# tst.env.scbd i2c_write_transaction MATCH!
# tst.env.scbd nb_transport: expected transaction name:  transaction_count: 357 i2c_address:0x22 op:0x0 i2c_data_compare:'{67}
# tst.env.scbd       nb_put:   actual transaction name: i2c_monitor_trans transaction_count: 352 i2c_address:0x22 op:0x0 i2c_data_compare:'{67}
# tst.env.scbd i2c_write_transaction MATCH!
# [Generator] Reading DPR: addr=1
# tst.env.scbd nb_transport: expected transaction name:  transaction_count: 369 i2c_address:0x22 op:0x1 i2c_data_compare:'{60}
# tst.env.scbd       nb_put:   actual transaction name: i2c_monitor_trans transaction_count: 364 i2c_address:0x22 op:0x1 i2c_data_compare:'{60}
# tst.env.scbd i2c_write_transaction MATCH!
# tst.env.scbd nb_transport: expected transaction name:  transaction_count: 381 i2c_address:0x22 op:0x0 i2c_data_compare:'{68}
# tst.env.scbd       nb_put:   actual transaction name: i2c_monitor_trans transaction_count: 376 i2c_address:0x22 op:0x0 i2c_data_compare:'{68}
# tst.env.scbd i2c_write_transaction MATCH!
# [Generator] Reading DPR: addr=1
# tst.env.scbd nb_transport: expected transaction name:  transaction_count: 393 i2c_address:0x22 op:0x1 i2c_data_compare:'{59}
# tst.env.scbd       nb_put:   actual transaction name: i2c_monitor_trans transaction_count: 388 i2c_address:0x22 op:0x1 i2c_data_compare:'{59}
# tst.env.scbd i2c_write_transaction MATCH!
# tst.env.scbd nb_transport: expected transaction name:  transaction_count: 405 i2c_address:0x22 op:0x0 i2c_data_compare:'{69}
# tst.env.scbd       nb_put:   actual transaction name: i2c_monitor_trans transaction_count: 400 i2c_address:0x22 op:0x0 i2c_data_compare:'{69}
# tst.env.scbd i2c_write_transaction MATCH!
# [Generator] Reading DPR: addr=1
# tst.env.scbd nb_transport: expected transaction name:  transaction_count: 417 i2c_address:0x22 op:0x1 i2c_data_compare:'{58}
# tst.env.scbd       nb_put:   actual transaction name: i2c_monitor_trans transaction_count: 412 i2c_address:0x22 op:0x1 i2c_data_compare:'{58}
# tst.env.scbd i2c_write_transaction MATCH!
# tst.env.scbd nb_transport: expected transaction name:  transaction_count: 429 i2c_address:0x22 op:0x0 i2c_data_compare:'{70}
# tst.env.scbd       nb_put:   actual transaction name: i2c_monitor_trans transaction_count: 424 i2c_address:0x22 op:0x0 i2c_data_compare:'{70}
# tst.env.scbd i2c_write_transaction MATCH!
# [Generator] Reading DPR: addr=1
# tst.env.scbd nb_transport: expected transaction name:  transaction_count: 441 i2c_address:0x22 op:0x1 i2c_data_compare:'{57}
# tst.env.scbd       nb_put:   actual transaction name: i2c_monitor_trans transaction_count: 436 i2c_address:0x22 op:0x1 i2c_data_compare:'{57}
# tst.env.scbd i2c_write_transaction MATCH!
# tst.env.scbd nb_transport: expected transaction name:  transaction_count: 453 i2c_address:0x22 op:0x0 i2c_data_compare:'{71}
# tst.env.scbd       nb_put:   actual transaction name: i2c_monitor_trans transaction_count: 448 i2c_address:0x22 op:0x0 i2c_data_compare:'{71}
# tst.env.scbd i2c_write_transaction MATCH!
# [Generator] Reading DPR: addr=1
# tst.env.scbd nb_transport: expected transaction name:  transaction_count: 465 i2c_address:0x22 op:0x1 i2c_data_compare:'{56}
# tst.env.scbd       nb_put:   actual transaction name: i2c_monitor_trans transaction_count: 460 i2c_address:0x22 op:0x1 i2c_data_compare:'{56}
# tst.env.scbd i2c_write_transaction MATCH!
# tst.env.scbd nb_transport: expected transaction name:  transaction_count: 477 i2c_address:0x22 op:0x0 i2c_data_compare:'{72}
# tst.env.scbd       nb_put:   actual transaction name: i2c_monitor_trans transaction_count: 472 i2c_address:0x22 op:0x0 i2c_data_compare:'{72}
# tst.env.scbd i2c_write_transaction MATCH!
# [Generator] Reading DPR: addr=1
# tst.env.scbd nb_transport: expected transaction name:  transaction_count: 489 i2c_address:0x22 op:0x1 i2c_data_compare:'{55}
# tst.env.scbd       nb_put:   actual transaction name: i2c_monitor_trans transaction_count: 484 i2c_address:0x22 op:0x1 i2c_data_compare:'{55}
# tst.env.scbd i2c_write_transaction MATCH!
# tst.env.scbd nb_transport: expected transaction name:  transaction_count: 501 i2c_address:0x22 op:0x0 i2c_data_compare:'{73}
# tst.env.scbd       nb_put:   actual transaction name: i2c_monitor_trans transaction_count: 496 i2c_address:0x22 op:0x0 i2c_data_compare:'{73}
# tst.env.scbd i2c_write_transaction MATCH!
# [Generator] Reading DPR: addr=1
# tst.env.scbd nb_transport: expected transaction name:  transaction_count: 513 i2c_address:0x22 op:0x1 i2c_data_compare:'{54}
# tst.env.scbd       nb_put:   actual transaction name: i2c_monitor_trans transaction_count: 508 i2c_address:0x22 op:0x1 i2c_data_compare:'{54}
# tst.env.scbd i2c_write_transaction MATCH!
# tst.env.scbd nb_transport: expected transaction name:  transaction_count: 525 i2c_address:0x22 op:0x0 i2c_data_compare:'{74}
# tst.env.scbd       nb_put:   actual transaction name: i2c_monitor_trans transaction_count: 520 i2c_address:0x22 op:0x0 i2c_data_compare:'{74}
# tst.env.scbd i2c_write_transaction MATCH!
# [Generator] Reading DPR: addr=1
# tst.env.scbd nb_transport: expected transaction name:  transaction_count: 537 i2c_address:0x22 op:0x1 i2c_data_compare:'{53}
# tst.env.scbd       nb_put:   actual transaction name: i2c_monitor_trans transaction_count: 532 i2c_address:0x22 op:0x1 i2c_data_compare:'{53}
# tst.env.scbd i2c_write_transaction MATCH!
# tst.env.scbd nb_transport: expected transaction name:  transaction_count: 549 i2c_address:0x22 op:0x0 i2c_data_compare:'{75}
# tst.env.scbd       nb_put:   actual transaction name: i2c_monitor_trans transaction_count: 544 i2c_address:0x22 op:0x0 i2c_data_compare:'{75}
# tst.env.scbd i2c_write_transaction MATCH!
# [Generator] Reading DPR: addr=1
# tst.env.scbd nb_transport: expected transaction name:  transaction_count: 561 i2c_address:0x22 op:0x1 i2c_data_compare:'{52}
# tst.env.scbd       nb_put:   actual transaction name: i2c_monitor_trans transaction_count: 556 i2c_address:0x22 op:0x1 i2c_data_compare:'{52}
# tst.env.scbd i2c_write_transaction MATCH!
# tst.env.scbd nb_transport: expected transaction name:  transaction_count: 573 i2c_address:0x22 op:0x0 i2c_data_compare:'{76}
# tst.env.scbd       nb_put:   actual transaction name: i2c_monitor_trans transaction_count: 568 i2c_address:0x22 op:0x0 i2c_data_compare:'{76}
# tst.env.scbd i2c_write_transaction MATCH!
# [Generator] Reading DPR: addr=1
# tst.env.scbd nb_transport: expected transaction name:  transaction_count: 585 i2c_address:0x22 op:0x1 i2c_data_compare:'{51}
# tst.env.scbd       nb_put:   actual transaction name: i2c_monitor_trans transaction_count: 580 i2c_address:0x22 op:0x1 i2c_data_compare:'{51}
# tst.env.scbd i2c_write_transaction MATCH!
# tst.env.scbd nb_transport: expected transaction name:  transaction_count: 597 i2c_address:0x22 op:0x0 i2c_data_compare:'{77}
# tst.env.scbd       nb_put:   actual transaction name: i2c_monitor_trans transaction_count: 592 i2c_address:0x22 op:0x0 i2c_data_compare:'{77}
# tst.env.scbd i2c_write_transaction MATCH!
# [Generator] Reading DPR: addr=1
# tst.env.scbd nb_transport: expected transaction name:  transaction_count: 609 i2c_address:0x22 op:0x1 i2c_data_compare:'{50}
# tst.env.scbd       nb_put:   actual transaction name: i2c_monitor_trans transaction_count: 604 i2c_address:0x22 op:0x1 i2c_data_compare:'{50}
# tst.env.scbd i2c_write_transaction MATCH!
# tst.env.scbd nb_transport: expected transaction name:  transaction_count: 621 i2c_address:0x22 op:0x0 i2c_data_compare:'{78}
# tst.env.scbd       nb_put:   actual transaction name: i2c_monitor_trans transaction_count: 616 i2c_address:0x22 op:0x0 i2c_data_compare:'{78}
# tst.env.scbd i2c_write_transaction MATCH!
# [Generator] Reading DPR: addr=1
# tst.env.scbd nb_transport: expected transaction name:  transaction_count: 633 i2c_address:0x22 op:0x1 i2c_data_compare:'{49}
# tst.env.scbd       nb_put:   actual transaction name: i2c_monitor_trans transaction_count: 628 i2c_address:0x22 op:0x1 i2c_data_compare:'{49}
# tst.env.scbd i2c_write_transaction MATCH!
# tst.env.scbd nb_transport: expected transaction name:  transaction_count: 645 i2c_address:0x22 op:0x0 i2c_data_compare:'{79}
# tst.env.scbd       nb_put:   actual transaction name: i2c_monitor_trans transaction_count: 640 i2c_address:0x22 op:0x0 i2c_data_compare:'{79}
# tst.env.scbd i2c_write_transaction MATCH!
# [Generator] Reading DPR: addr=1
# tst.env.scbd nb_transport: expected transaction name:  transaction_count: 657 i2c_address:0x22 op:0x1 i2c_data_compare:'{48}
# tst.env.scbd       nb_put:   actual transaction name: i2c_monitor_trans transaction_count: 652 i2c_address:0x22 op:0x1 i2c_data_compare:'{48}
# tst.env.scbd i2c_write_transaction MATCH!
# tst.env.scbd nb_transport: expected transaction name:  transaction_count: 669 i2c_address:0x22 op:0x0 i2c_data_compare:'{80}
# tst.env.scbd       nb_put:   actual transaction name: i2c_monitor_trans transaction_count: 664 i2c_address:0x22 op:0x0 i2c_data_compare:'{80}
# tst.env.scbd i2c_write_transaction MATCH!
# [Generator] Reading DPR: addr=1
# tst.env.scbd nb_transport: expected transaction name:  transaction_count: 681 i2c_address:0x22 op:0x1 i2c_data_compare:'{47}
# tst.env.scbd       nb_put:   actual transaction name: i2c_monitor_trans transaction_count: 676 i2c_address:0x22 op:0x1 i2c_data_compare:'{47}
# tst.env.scbd i2c_write_transaction MATCH!
# tst.env.scbd nb_transport: expected transaction name:  transaction_count: 693 i2c_address:0x22 op:0x0 i2c_data_compare:'{81}
# tst.env.scbd       nb_put:   actual transaction name: i2c_monitor_trans transaction_count: 688 i2c_address:0x22 op:0x0 i2c_data_compare:'{81}
# tst.env.scbd i2c_write_transaction MATCH!
# [Generator] Reading DPR: addr=1
# tst.env.scbd nb_transport: expected transaction name:  transaction_count: 705 i2c_address:0x22 op:0x1 i2c_data_compare:'{46}
# tst.env.scbd       nb_put:   actual transaction name: i2c_monitor_trans transaction_count: 700 i2c_address:0x22 op:0x1 i2c_data_compare:'{46}
# tst.env.scbd i2c_write_transaction MATCH!
# tst.env.scbd nb_transport: expected transaction name:  transaction_count: 717 i2c_address:0x22 op:0x0 i2c_data_compare:'{82}
# tst.env.scbd       nb_put:   actual transaction name: i2c_monitor_trans transaction_count: 712 i2c_address:0x22 op:0x0 i2c_data_compare:'{82}
# tst.env.scbd i2c_write_transaction MATCH!
# [Generator] Reading DPR: addr=1
# tst.env.scbd nb_transport: expected transaction name:  transaction_count: 729 i2c_address:0x22 op:0x1 i2c_data_compare:'{45}
# tst.env.scbd       nb_put:   actual transaction name: i2c_monitor_trans transaction_count: 724 i2c_address:0x22 op:0x1 i2c_data_compare:'{45}
# tst.env.scbd i2c_write_transaction MATCH!
# tst.env.scbd nb_transport: expected transaction name:  transaction_count: 741 i2c_address:0x22 op:0x0 i2c_data_compare:'{83}
# tst.env.scbd       nb_put:   actual transaction name: i2c_monitor_trans transaction_count: 736 i2c_address:0x22 op:0x0 i2c_data_compare:'{83}
# tst.env.scbd i2c_write_transaction MATCH!
# [Generator] Reading DPR: addr=1
# tst.env.scbd nb_transport: expected transaction name:  transaction_count: 753 i2c_address:0x22 op:0x1 i2c_data_compare:'{44}
# tst.env.scbd       nb_put:   actual transaction name: i2c_monitor_trans transaction_count: 748 i2c_address:0x22 op:0x1 i2c_data_compare:'{44}
# tst.env.scbd i2c_write_transaction MATCH!
# tst.env.scbd nb_transport: expected transaction name:  transaction_count: 765 i2c_address:0x22 op:0x0 i2c_data_compare:'{84}
# tst.env.scbd       nb_put:   actual transaction name: i2c_monitor_trans transaction_count: 760 i2c_address:0x22 op:0x0 i2c_data_compare:'{84}
# tst.env.scbd i2c_write_transaction MATCH!
# [Generator] Reading DPR: addr=1
# tst.env.scbd nb_transport: expected transaction name:  transaction_count: 777 i2c_address:0x22 op:0x1 i2c_data_compare:'{43}
# tst.env.scbd       nb_put:   actual transaction name: i2c_monitor_trans transaction_count: 772 i2c_address:0x22 op:0x1 i2c_data_compare:'{43}
# tst.env.scbd i2c_write_transaction MATCH!
# tst.env.scbd nb_transport: expected transaction name:  transaction_count: 789 i2c_address:0x22 op:0x0 i2c_data_compare:'{85}
# tst.env.scbd       nb_put:   actual transaction name: i2c_monitor_trans transaction_count: 784 i2c_address:0x22 op:0x0 i2c_data_compare:'{85}
# tst.env.scbd i2c_write_transaction MATCH!
# [Generator] Reading DPR: addr=1
# tst.env.scbd nb_transport: expected transaction name:  transaction_count: 801 i2c_address:0x22 op:0x1 i2c_data_compare:'{42}
# tst.env.scbd       nb_put:   actual transaction name: i2c_monitor_trans transaction_count: 796 i2c_address:0x22 op:0x1 i2c_data_compare:'{42}
# tst.env.scbd i2c_write_transaction MATCH!
# tst.env.scbd nb_transport: expected transaction name:  transaction_count: 813 i2c_address:0x22 op:0x0 i2c_data_compare:'{86}
# tst.env.scbd       nb_put:   actual transaction name: i2c_monitor_trans transaction_count: 808 i2c_address:0x22 op:0x0 i2c_data_compare:'{86}
# tst.env.scbd i2c_write_transaction MATCH!
# [Generator] Reading DPR: addr=1
# tst.env.scbd nb_transport: expected transaction name:  transaction_count: 825 i2c_address:0x22 op:0x1 i2c_data_compare:'{41}
# tst.env.scbd       nb_put:   actual transaction name: i2c_monitor_trans transaction_count: 820 i2c_address:0x22 op:0x1 i2c_data_compare:'{41}
# tst.env.scbd i2c_write_transaction MATCH!
# tst.env.scbd nb_transport: expected transaction name:  transaction_count: 837 i2c_address:0x22 op:0x0 i2c_data_compare:'{87}
# tst.env.scbd       nb_put:   actual transaction name: i2c_monitor_trans transaction_count: 832 i2c_address:0x22 op:0x0 i2c_data_compare:'{87}
# tst.env.scbd i2c_write_transaction MATCH!
# [Generator] Reading DPR: addr=1
# tst.env.scbd nb_transport: expected transaction name:  transaction_count: 849 i2c_address:0x22 op:0x1 i2c_data_compare:'{40}
# tst.env.scbd       nb_put:   actual transaction name: i2c_monitor_trans transaction_count: 844 i2c_address:0x22 op:0x1 i2c_data_compare:'{40}
# tst.env.scbd i2c_write_transaction MATCH!
# tst.env.scbd nb_transport: expected transaction name:  transaction_count: 861 i2c_address:0x22 op:0x0 i2c_data_compare:'{88}
# tst.env.scbd       nb_put:   actual transaction name: i2c_monitor_trans transaction_count: 856 i2c_address:0x22 op:0x0 i2c_data_compare:'{88}
# tst.env.scbd i2c_write_transaction MATCH!
# [Generator] Reading DPR: addr=1
# tst.env.scbd nb_transport: expected transaction name:  transaction_count: 873 i2c_address:0x22 op:0x1 i2c_data_compare:'{39}
# tst.env.scbd       nb_put:   actual transaction name: i2c_monitor_trans transaction_count: 868 i2c_address:0x22 op:0x1 i2c_data_compare:'{39}
# tst.env.scbd i2c_write_transaction MATCH!
# tst.env.scbd nb_transport: expected transaction name:  transaction_count: 885 i2c_address:0x22 op:0x0 i2c_data_compare:'{89}
# tst.env.scbd       nb_put:   actual transaction name: i2c_monitor_trans transaction_count: 880 i2c_address:0x22 op:0x0 i2c_data_compare:'{89}
# tst.env.scbd i2c_write_transaction MATCH!
# [Generator] Reading DPR: addr=1
# tst.env.scbd nb_transport: expected transaction name:  transaction_count: 897 i2c_address:0x22 op:0x1 i2c_data_compare:'{38}
# tst.env.scbd       nb_put:   actual transaction name: i2c_monitor_trans transaction_count: 892 i2c_address:0x22 op:0x1 i2c_data_compare:'{38}
# tst.env.scbd i2c_write_transaction MATCH!
# tst.env.scbd nb_transport: expected transaction name:  transaction_count: 909 i2c_address:0x22 op:0x0 i2c_data_compare:'{90}
# tst.env.scbd       nb_put:   actual transaction name: i2c_monitor_trans transaction_count: 904 i2c_address:0x22 op:0x0 i2c_data_compare:'{90}
# tst.env.scbd i2c_write_transaction MATCH!
# [Generator] Reading DPR: addr=1
# tst.env.scbd nb_transport: expected transaction name:  transaction_count: 921 i2c_address:0x22 op:0x1 i2c_data_compare:'{37}
# tst.env.scbd       nb_put:   actual transaction name: i2c_monitor_trans transaction_count: 916 i2c_address:0x22 op:0x1 i2c_data_compare:'{37}
# tst.env.scbd i2c_write_transaction MATCH!
# tst.env.scbd nb_transport: expected transaction name:  transaction_count: 933 i2c_address:0x22 op:0x0 i2c_data_compare:'{91}
# tst.env.scbd       nb_put:   actual transaction name: i2c_monitor_trans transaction_count: 928 i2c_address:0x22 op:0x0 i2c_data_compare:'{91}
# tst.env.scbd i2c_write_transaction MATCH!
# [Generator] Reading DPR: addr=1
# tst.env.scbd nb_transport: expected transaction name:  transaction_count: 945 i2c_address:0x22 op:0x1 i2c_data_compare:'{36}
# tst.env.scbd       nb_put:   actual transaction name: i2c_monitor_trans transaction_count: 940 i2c_address:0x22 op:0x1 i2c_data_compare:'{36}
# tst.env.scbd i2c_write_transaction MATCH!
# tst.env.scbd nb_transport: expected transaction name:  transaction_count: 957 i2c_address:0x22 op:0x0 i2c_data_compare:'{92}
# tst.env.scbd       nb_put:   actual transaction name: i2c_monitor_trans transaction_count: 952 i2c_address:0x22 op:0x0 i2c_data_compare:'{92}
# tst.env.scbd i2c_write_transaction MATCH!
# [Generator] Reading DPR: addr=1
# tst.env.scbd nb_transport: expected transaction name:  transaction_count: 969 i2c_address:0x22 op:0x1 i2c_data_compare:'{35}
# tst.env.scbd       nb_put:   actual transaction name: i2c_monitor_trans transaction_count: 964 i2c_address:0x22 op:0x1 i2c_data_compare:'{35}
# tst.env.scbd i2c_write_transaction MATCH!
# tst.env.scbd nb_transport: expected transaction name:  transaction_count: 981 i2c_address:0x22 op:0x0 i2c_data_compare:'{93}
# tst.env.scbd       nb_put:   actual transaction name: i2c_monitor_trans transaction_count: 976 i2c_address:0x22 op:0x0 i2c_data_compare:'{93}
# tst.env.scbd i2c_write_transaction MATCH!
# [Generator] Reading DPR: addr=1
# tst.env.scbd nb_transport: expected transaction name:  transaction_count: 993 i2c_address:0x22 op:0x1 i2c_data_compare:'{34}
# tst.env.scbd       nb_put:   actual transaction name: i2c_monitor_trans transaction_count: 988 i2c_address:0x22 op:0x1 i2c_data_compare:'{34}
# tst.env.scbd i2c_write_transaction MATCH!
# tst.env.scbd nb_transport: expected transaction name:  transaction_count: 1005 i2c_address:0x22 op:0x0 i2c_data_compare:'{94}
# tst.env.scbd       nb_put:   actual transaction name: i2c_monitor_trans transaction_count: 1000 i2c_address:0x22 op:0x0 i2c_data_compare:'{94}
# tst.env.scbd i2c_write_transaction MATCH!
# [Generator] Reading DPR: addr=1
# tst.env.scbd nb_transport: expected transaction name:  transaction_count: 1017 i2c_address:0x22 op:0x1 i2c_data_compare:'{33}
# tst.env.scbd       nb_put:   actual transaction name: i2c_monitor_trans transaction_count: 1012 i2c_address:0x22 op:0x1 i2c_data_compare:'{33}
# tst.env.scbd i2c_write_transaction MATCH!
# tst.env.scbd nb_transport: expected transaction name:  transaction_count: 1029 i2c_address:0x22 op:0x0 i2c_data_compare:'{95}
# tst.env.scbd       nb_put:   actual transaction name: i2c_monitor_trans transaction_count: 1024 i2c_address:0x22 op:0x0 i2c_data_compare:'{95}
# tst.env.scbd i2c_write_transaction MATCH!
# [Generator] Reading DPR: addr=1
# tst.env.scbd nb_transport: expected transaction name:  transaction_count: 1041 i2c_address:0x22 op:0x1 i2c_data_compare:'{32}
# tst.env.scbd       nb_put:   actual transaction name: i2c_monitor_trans transaction_count: 1036 i2c_address:0x22 op:0x1 i2c_data_compare:'{32}
# tst.env.scbd i2c_write_transaction MATCH!
# tst.env.scbd nb_transport: expected transaction name:  transaction_count: 1053 i2c_address:0x22 op:0x0 i2c_data_compare:'{96}
# tst.env.scbd       nb_put:   actual transaction name: i2c_monitor_trans transaction_count: 1048 i2c_address:0x22 op:0x0 i2c_data_compare:'{96}
# tst.env.scbd i2c_write_transaction MATCH!
# [Generator] Reading DPR: addr=1
# tst.env.scbd nb_transport: expected transaction name:  transaction_count: 1065 i2c_address:0x22 op:0x1 i2c_data_compare:'{31}
# tst.env.scbd       nb_put:   actual transaction name: i2c_monitor_trans transaction_count: 1060 i2c_address:0x22 op:0x1 i2c_data_compare:'{31}
# tst.env.scbd i2c_write_transaction MATCH!
# tst.env.scbd nb_transport: expected transaction name:  transaction_count: 1077 i2c_address:0x22 op:0x0 i2c_data_compare:'{97}
# tst.env.scbd       nb_put:   actual transaction name: i2c_monitor_trans transaction_count: 1072 i2c_address:0x22 op:0x0 i2c_data_compare:'{97}
# tst.env.scbd i2c_write_transaction MATCH!
# [Generator] Reading DPR: addr=1
# tst.env.scbd nb_transport: expected transaction name:  transaction_count: 1089 i2c_address:0x22 op:0x1 i2c_data_compare:'{30}
# tst.env.scbd       nb_put:   actual transaction name: i2c_monitor_trans transaction_count: 1084 i2c_address:0x22 op:0x1 i2c_data_compare:'{30}
# tst.env.scbd i2c_write_transaction MATCH!
# tst.env.scbd nb_transport: expected transaction name:  transaction_count: 1101 i2c_address:0x22 op:0x0 i2c_data_compare:'{98}
# tst.env.scbd       nb_put:   actual transaction name: i2c_monitor_trans transaction_count: 1096 i2c_address:0x22 op:0x0 i2c_data_compare:'{98}
# tst.env.scbd i2c_write_transaction MATCH!
# [Generator] Reading DPR: addr=1
